HW0603
…
# What Not To Do: Don't use for loops
excel_list <- list()
for (path in paths_chr) {
    excel_list[[path]] <- read_excel(path)
}

## New names:
## * `` -> ...1

excel_list

## $`data/bike_sales/bikes.xlsx`
## # A tibble: 97 x 4
##    bike.id model                          description                price
##      <dbl> <chr>                          <chr>                      <dbl>
##  1       1 Supersix Evo Black Inc.        Road - Elite Road - Carbon 12790
##  2       2 Supersix Evo Hi-Mod Team       Road - Elite Road - Carbon 10660
##  3       3 Supersix Evo Hi-Mod Dura Ace 1 Road - Elite Road - Carbon  7990
##  4       4 Supersix Evo Hi-Mod Dura Ace 2 Road - Elite Road - Carbon  5330
##  5       5 Supersix Evo Hi-Mod Utegra     Road - Elite Road - Carbon  4260
##  6       6 Supersix Evo Red               Road - Elite Road - Carbon  3940
##  7       7 Supersix Evo Ultegra 3         Road - Elite Road - Carbon  3200
##  8       8 Supersix Evo Ultegra 4         Road - Elite Road - Carbon  2660
##  9       9 Supersix Evo 105               Road - Elite Road - Carbon  2240
## 10      10 Supersix Evo Tiagra            Road - Elite Road - Carbon  1840
## # ... with 87 more rows
## 
## $`data/bike_sales/bikeshops.xlsx`
## # A tibble: 30 x 3
##    bikeshop.id bikeshop.name                location       
##          <dbl> <chr>                        <chr>          
##  1           1 Pittsburgh Mountain Machines Pittsburgh, PA 
##  2           2 Ithaca Mountain Climbers     Ithaca, NY     
##  3           3 Columbus Race Equipment      Columbus, OH   
##  4           4 Detroit Cycles               Detroit, MI    
##  5           5 Cincinnati Speed             Cincinnati, OH 
##  6           6 Louisville Race Equipment    Louisville, KY 
##  7           7 Nashville Cruisers           Nashville, TN  
##  8           8 Denver Bike Shop             Denver, CO     
##  9           9 Minneapolis Bike Shop        Minneapolis, MN
## 10          10 Kansas City 29ers            Kansas City, KS
## # ... with 20 more rows
## 
## $`data/bike_sales/orderlines.xlsx`
## # A tibble: 15,644 x 7
##    ...1  order.id order.line order.date          customer.id product.id
##    <chr>    <dbl>      <dbl> <dttm>                    <dbl>      <dbl>
##  1 1            1          1 2011-01-07 00:00:00           2         48
##  2 2            1          2 2011-01-07 00:00:00           2         52
##  3 3            2          1 2011-01-10 00:00:00          10         76
##  4 4            2          2 2011-01-10 00:00:00          10         52
##  5 5            3          1 2011-01-10 00:00:00           6          2
##  6 6            3          2 2011-01-10 00:00:00           6         50
##  7 7            3          3 2011-01-10 00:00:00           6          1
##  8 8            3          4 2011-01-10 00:00:00           6          4
##  9 9            3          5 2011-01-10 00:00:00           6         34
## 10 10           4          1 2011-01-11 00:00:00          22         26
## # ... with 15,634 more rows, and 1 more variable: quantity <dbl>
…
## New names:
## * `` -> ...1

# Method 2: Anonymous Function
paths_chr %>%
    map(~ read_excel(.))

## New names:
## * `` -> ...1

## [[1]]
## # A tibble: 97 x 4
##    bike.id model                          description                price
##      <dbl> <chr>                          <chr>                      <dbl>
##  1       1 Supersix Evo Black Inc.        Road - Elite Road - Carbon 12790
##  2       2 Supersix Evo Hi-Mod Team       Road - Elite Road - Carbon 10660
##  3       3 Supersix Evo Hi-Mod Dura Ace 1 Road - Elite Road - Carbon  7990
##  4       4 Supersix Evo Hi-Mod Dura Ace 2 Road - Elite Road - Carbon  5330
##  5       5 Supersix Evo Hi-Mod Utegra     Road - Elite Road - Carbon  4260
##  6       6 Supersix Evo Red               Road - Elite Road - Carbon  3940
##  7       7 Supersix Evo Ultegra 3         Road - Elite Road - Carbon  3200
##  8       8 Supersix Evo Ultegra 4         Road - Elite Road - Carbon  2660
##  9       9 Supersix Evo 105               Road - Elite Road - Carbon  2240
## 10      10 Supersix Evo Tiagra            Road - Elite Road - Carbon  1840
## # ... with 87 more rows
## 
## [[2]]
## # A tibble: 30 x 3
##    bikeshop.id bikeshop.name                location       
##          <dbl> <chr>                        <chr>          
##  1           1 Pittsburgh Mountain Machines Pittsburgh, PA 
##  2           2 Ithaca Mountain Climbers     Ithaca, NY     
##  3           3 Columbus Race Equipment      Columbus, OH   
##  4           4 Detroit Cycles               Detroit, MI    
##  5           5 Cincinnati Speed             Cincinnati, OH 
##  6           6 Louisville Race Equipment    Louisville, KY 
##  7           7 Nashville Cruisers           Nashville, TN  
##  8           8 Denver Bike Shop             Denver, CO     
##  9           9 Minneapolis Bike Shop        Minneapolis, MN
## 10          10 Kansas City 29ers            Kansas City, KS
## # ... with 20 more rows
## 
## [[3]]
## # A tibble: 15,644 x 7
##    ...1  order.id order.line order.date          customer.id product.id
##    <chr>    <dbl>      <dbl> <dttm>                    <dbl>      <dbl>
##  1 1            1          1 2011-01-07 00:00:00           2         48
##  2 2            1          2 2011-01-07 00:00:00           2         52
##  3 3            2          1 2011-01-10 00:00:00          10         76
##  4 4            2          2 2011-01-10 00:00:00          10         52
##  5 5            3          1 2011-01-10 00:00:00           6          2
##  6 6            3          2 2011-01-10 00:00:00           6         50
##  7 7            3          3 2011-01-10 00:00:00           6          1
##  8 8            3          4 2011-01-10 00:00:00           6          4
##  9 9            3          5 2011-01-10 00:00:00           6         34
## 10 10           4          1 2011-01-11 00:00:00          22         26
## # ... with 15,634 more rows, and 1 more variable: quantity <dbl>

# Method 3: Function specified with function()
paths_chr %>%
    map(function(x) read_excel(path = x))

## New names:
## * `` -> ...1

## [[1]]
## # A tibble: 97 x 4
##    bike.id model                          description                price
##      <dbl> <chr>                          <chr>                      <dbl>
##  1       1 Supersix Evo Black Inc.        Road - Elite Road - Carbon 12790
##  2       2 Supersix Evo Hi-Mod Team       Road - Elite Road - Carbon 10660
##  3       3 Supersix Evo Hi-Mod Dura Ace 1 Road - Elite Road - Carbon  7990
##  4       4 Supersix Evo Hi-Mod Dura Ace 2 Road - Elite Road - Carbon  5330
##  5       5 Supersix Evo Hi-Mod Utegra     Road - Elite Road - Carbon  4260
##  6       6 Supersix Evo Red               Road - Elite Road - Carbon  3940
##  7       7 Supersix Evo Ultegra 3         Road - Elite Road - Carbon  3200
##  8       8 Supersix Evo Ultegra 4         Road - Elite Road - Carbon  2660
##  9       9 Supersix Evo 105               Road - Elite Road - Carbon  2240
## 10      10 Supersix Evo Tiagra            Road - Elite Road - Carbon  1840
## # ... with 87 more rows
## 
## [[2]]
## # A tibble: 30 x 3
##    bikeshop.id bikeshop.name                location       
##          <dbl> <chr>                        <chr>          
##  1           1 Pittsburgh Mountain Machines Pittsburgh, PA 
##  2           2 Ithaca Mountain Climbers     Ithaca, NY     
##  3           3 Columbus Race Equipment      Columbus, OH   
##  4           4 Detroit Cycles               Detroit, MI    
##  5           5 Cincinnati Speed             Cincinnati, OH 
##  6           6 Louisville Race Equipment    Louisville, KY 
##  7           7 Nashville Cruisers           Nashville, TN  
##  8           8 Denver Bike Shop             Denver, CO     
##  9           9 Minneapolis Bike Shop        Minneapolis, MN
## 10          10 Kansas City 29ers            Kansas City, KS
## # ... with 20 more rows
## 
## [[3]]
## # A tibble: 15,644 x 7
##    ...1  order.id order.line order.date          customer.id product.id
##    <chr>    <dbl>      <dbl> <dttm>                    <dbl>      <dbl>
##  1 1            1          1 2011-01-07 00:00:00           2         48
##  2 2            1          2 2011-01-07 00:00:00           2         52
##  3 3            2          1 2011-01-10 00:00:00          10         76
##  4 4            2          2 2011-01-10 00:00:00          10         52
##  5 5            3          1 2011-01-10 00:00:00           6          2
##  6 6            3          2 2011-01-10 00:00:00           6         50
##  7 7            3          3 2011-01-10 00:00:00           6          1
##  8 8            3          4 2011-01-10 00:00:00           6          4
##  9 9            3          5 2011-01-10 00:00:00           6         34
## 10 10           4          1 2011-01-11 00:00:00          22         26
## # ... with 15,634 more rows, and 1 more variable: quantity <dbl>

# Reading Excel Sheets

excel_sheets("data/bike_sales/bikes.xlsx") %>%
    map(~ read_excel(path = "data/bike_sales/bikes.xlsx", sheet = .))

## [[1]]
## # A tibble: 97 x 4
##    bike.id model                          description                price
##      <dbl> <chr>                          <chr>                      <dbl>
##  1       1 Supersix Evo Black Inc.        Road - Elite Road - Carbon 12790
##  2       2 Supersix Evo Hi-Mod Team       Road - Elite Road - Carbon 10660
##  3       3 Supersix Evo Hi-Mod Dura Ace 1 Road - Elite Road - Carbon  7990
##  4       4 Supersix Evo Hi-Mod Dura Ace 2 Road - Elite Road - Carbon  5330
##  5       5 Supersix Evo Hi-Mod Utegra     Road - Elite Road - Carbon  4260
##  6       6 Supersix Evo Red               Road - Elite Road - Carbon  3940
##  7       7 Supersix Evo Ultegra 3         Road - Elite Road - Carbon  3200
##  8       8 Supersix Evo Ultegra 4         Road - Elite Road - Carbon  2660
##  9       9 Supersix Evo 105               Road - Elite Road - Carbon  2240
## 10      10 Supersix Evo Tiagra            Road - Elite Road - Carbon  1840
## # ... with 87 more rows
…
# 2.3 Row-wise Map ----

excel_tbl <- excel_paths_tbl %>%
    select(path) %>%
    mutate(data = path %>% map(read_excel))

## New names:
## * `` -> ...1

excel_list

## $`data/bike_sales/bikes.xlsx`
## # A tibble: 97 x 4
##    bike.id model                          description                price
##      <dbl> <chr>                          <chr>                      <dbl>
##  1       1 Supersix Evo Black Inc.        Road - Elite Road - Carbon 12790
##  2       2 Supersix Evo Hi-Mod Team       Road - Elite Road - Carbon 10660
##  3       3 Supersix Evo Hi-Mod Dura Ace 1 Road - Elite Road - Carbon  7990
##  4       4 Supersix Evo Hi-Mod Dura Ace 2 Road - Elite Road - Carbon  5330
##  5       5 Supersix Evo Hi-Mod Utegra     Road - Elite Road - Carbon  4260
##  6       6 Supersix Evo Red               Road - Elite Road - Carbon  3940
##  7       7 Supersix Evo Ultegra 3         Road - Elite Road - Carbon  3200
##  8       8 Supersix Evo Ultegra 4         Road - Elite Road - Carbon  2660
##  9       9 Supersix Evo 105               Road - Elite Road - Carbon  2240
## 10      10 Supersix Evo Tiagra            Road - Elite Road - Carbon  1840
## # ... with 87 more rows
## 
## $`data/bike_sales/bikeshops.xlsx`
## # A tibble: 30 x 3
##    bikeshop.id bikeshop.name                location       
##          <dbl> <chr>                        <chr>          
##  1           1 Pittsburgh Mountain Machines Pittsburgh, PA 
##  2           2 Ithaca Mountain Climbers     Ithaca, NY     
##  3           3 Columbus Race Equipment      Columbus, OH   
##  4           4 Detroit Cycles               Detroit, MI    
##  5           5 Cincinnati Speed             Cincinnati, OH 
##  6           6 Louisville Race Equipment    Louisville, KY 
##  7           7 Nashville Cruisers           Nashville, TN  
##  8           8 Denver Bike Shop             Denver, CO     
##  9           9 Minneapolis Bike Shop        Minneapolis, MN
## 10          10 Kansas City 29ers            Kansas City, KS
## # ... with 20 more rows
## 
## $`data/bike_sales/orderlines.xlsx`
## # A tibble: 15,644 x 7
##    ...1  order.id order.line order.date          customer.id product.id
##    <chr>    <dbl>      <dbl> <dttm>                    <dbl>      <dbl>
##  1 1            1          1 2011-01-07 00:00:00           2         48
##  2 2            1          2 2011-01-07 00:00:00           2         52
##  3 3            2          1 2011-01-10 00:00:00          10         76
##  4 4            2          2 2011-01-10 00:00:00          10         52
##  5 5            3          1 2011-01-10 00:00:00           6          2
##  6 6            3          2 2011-01-10 00:00:00           6         50
##  7 7            3          3 2011-01-10 00:00:00           6          1
##  8 8            3          4 2011-01-10 00:00:00           6          4
##  9 9            3          5 2011-01-10 00:00:00           6         34
## 10 10           4          1 2011-01-11 00:00:00          22         26
## # ... with 15,634 more rows, and 1 more variable: quantity <dbl>
…
# Unnest
excel_tbl

## # A tibble: 3 x 2
##   path                            data                 
##   <fs::path>                      <list>               
## 1 data/bike_sales/bikes.xlsx      <tibble [97 x 4]>    
## 2 data/bike_sales/bikeshops.xlsx  <tibble [30 x 3]>    
## 3 data/bike_sales/orderlines.xlsx <tibble [15,644 x 7]>

excel_tbl$data

## [[1]]
## # A tibble: 97 x 4
##    bike.id model                          description                price
##      <dbl> <chr>                          <chr>                      <dbl>
##  1       1 Supersix Evo Black Inc.        Road - Elite Road - Carbon 12790
##  2       2 Supersix Evo Hi-Mod Team       Road - Elite Road - Carbon 10660
##  3       3 Supersix Evo Hi-Mod Dura Ace 1 Road - Elite Road - Carbon  7990
##  4       4 Supersix Evo Hi-Mod Dura Ace 2 Road - Elite Road - Carbon  5330
##  5       5 Supersix Evo Hi-Mod Utegra     Road - Elite Road - Carbon  4260
##  6       6 Supersix Evo Red               Road - Elite Road - Carbon  3940
##  7       7 Supersix Evo Ultegra 3         Road - Elite Road - Carbon  3200
##  8       8 Supersix Evo Ultegra 4         Road - Elite Road - Carbon  2660
##  9       9 Supersix Evo 105               Road - Elite Road - Carbon  2240
## 10      10 Supersix Evo Tiagra            Road - Elite Road - Carbon  1840
## # ... with 87 more rows
## 
## [[2]]
## # A tibble: 30 x 3
##    bikeshop.id bikeshop.name                location       
##          <dbl> <chr>                        <chr>          
##  1           1 Pittsburgh Mountain Machines Pittsburgh, PA 
##  2           2 Ithaca Mountain Climbers     Ithaca, NY     
##  3           3 Columbus Race Equipment      Columbus, OH   
##  4           4 Detroit Cycles               Detroit, MI    
##  5           5 Cincinnati Speed             Cincinnati, OH 
##  6           6 Louisville Race Equipment    Louisville, KY 
##  7           7 Nashville Cruisers           Nashville, TN  
##  8           8 Denver Bike Shop             Denver, CO     
##  9           9 Minneapolis Bike Shop        Minneapolis, MN
## 10          10 Kansas City 29ers            Kansas City, KS
## # ... with 20 more rows
## 
## [[3]]
## # A tibble: 15,644 x 7
##    ...1  order.id order.line order.date          customer.id product.id
##    <chr>    <dbl>      <dbl> <dttm>                    <dbl>      <dbl>
##  1 1            1          1 2011-01-07 00:00:00           2         48
##  2 2            1          2 2011-01-07 00:00:00           2         52
##  3 3            2          1 2011-01-10 00:00:00          10         76
##  4 4            2          2 2011-01-10 00:00:00          10         52
##  5 5            3          1 2011-01-10 00:00:00           6          2
##  6 6            3          2 2011-01-10 00:00:00           6         50
##  7 7            3          3 2011-01-10 00:00:00           6          1
##  8 8            3          4 2011-01-10 00:00:00           6          4
##  9 9            3          5 2011-01-10 00:00:00           6         34
## 10 10           4          1 2011-01-11 00:00:00          22         26
## # ... with 15,634 more rows, and 1 more variable: quantity <dbl>

excel_tbl$data[[3]]

## # A tibble: 15,644 x 7
##    ...1  order.id order.line order.date          customer.id product.id
##    <chr>    <dbl>      <dbl> <dttm>                    <dbl>      <dbl>
##  1 1            1          1 2011-01-07 00:00:00           2         48
##  2 2            1          2 2011-01-07 00:00:00           2         52
##  3 3            2          1 2011-01-10 00:00:00          10         76
##  4 4            2          2 2011-01-10 00:00:00          10         52
##  5 5            3          1 2011-01-10 00:00:00           6          2
##  6 6            3          2 2011-01-10 00:00:00           6         50
##  7 7            3          3 2011-01-10 00:00:00           6          1
##  8 8            3          4 2011-01-10 00:00:00           6          4
##  9 9            3          5 2011-01-10 00:00:00           6         34
## 10 10           4          1 2011-01-11 00:00:00          22         26
## # ... with 15,634 more rows, and 1 more variable: quantity <dbl>

excel_tbl_unnested <- excel_tbl %>%
    unnest(data, .id = 'ID') 

excel_tbl_unnested

## # A tibble: 15,771 x 16
##    path       ID    bike.id model description price bikeshop.id
##    <fs::path> <chr>   <dbl> <chr> <chr>       <dbl>       <dbl>
##  1 data/bike~ 1           1 Supe~ Road - Eli~ 12790          NA
##  2 data/bike~ 1           2 Supe~ Road - Eli~ 10660          NA
##  3 data/bike~ 1           3 Supe~ Road - Eli~  7990          NA
##  4 data/bike~ 1           4 Supe~ Road - Eli~  5330          NA
##  5 data/bike~ 1           5 Supe~ Road - Eli~  4260          NA
##  6 data/bike~ 1           6 Supe~ Road - Eli~  3940          NA
##  7 data/bike~ 1           7 Supe~ Road - Eli~  3200          NA
##  8 data/bike~ 1           8 Supe~ Road - Eli~  2660          NA
##  9 data/bike~ 1           9 Supe~ Road - Eli~  2240          NA
## 10 data/bike~ 1          10 Supe~ Road - Eli~  1840          NA
## # ... with 15,761 more rows, and 9 more variables: bikeshop.name <chr>,
## #   location <chr>, ...1 <chr>, order.id <dbl>, order.line <dbl>,
## #   order.date <dttm>, customer.id <dbl>, product.id <dbl>, quantity <dbl>

# Nest

excel_tbl_nested <- excel_tbl_unnested %>%
    group_by(ID, path) %>%
    nest()

excel_tbl_nested$data

## [[1]]
## # A tibble: 97 x 14
##    bike.id model description price bikeshop.id bikeshop.name location ...1 
##      <dbl> <chr> <chr>       <dbl>       <dbl> <chr>         <chr>    <chr>
##  1       1 Supe~ Road - Eli~ 12790          NA <NA>          <NA>     <NA> 
##  2       2 Supe~ Road - Eli~ 10660          NA <NA>          <NA>     <NA> 
##  3       3 Supe~ Road - Eli~  7990          NA <NA>          <NA>     <NA> 
##  4       4 Supe~ Road - Eli~  5330          NA <NA>          <NA>     <NA> 
##  5       5 Supe~ Road - Eli~  4260          NA <NA>          <NA>     <NA> 
##  6       6 Supe~ Road - Eli~  3940          NA <NA>          <NA>     <NA> 
##  7       7 Supe~ Road - Eli~  3200          NA <NA>          <NA>     <NA> 
##  8       8 Supe~ Road - Eli~  2660          NA <NA>          <NA>     <NA> 
##  9       9 Supe~ Road - Eli~  2240          NA <NA>          <NA>     <NA> 
## 10      10 Supe~ Road - Eli~  1840          NA <NA>          <NA>     <NA> 
## # ... with 87 more rows, and 6 more variables: order.id <dbl>,
## #   order.line <dbl>, order.date <dttm>, customer.id <dbl>,
## #   product.id <dbl>, quantity <dbl>
## 
## [[2]]
…
